…
,

## # A tibble: 40 x 4
##      money_mean money_median     n
##    <int>      <dbl>        <dbl> <int>
##  1    18      1882.        1500    533
##  2    19      1619.        1114.  2950
##  3    20      1821.        1500   5523
##  4    21      2357.        2000   8524
##  5    22      3250.        3000  14352
##  6    23      3727.        3100  17465
##  7    24      4061.        3500  17856
##  8    25      4270.        3658  17847
##  9    26      4464.        3822  19728
## 10    27      4535.        4000  18995
## # ... with 30 more rows

## # A tibble: 252,162 x 22
## # Groups:    [40]
##        X ListingId      
##  * <int>     <int>    <int>    <int>    <dbl> <fct>    <fct>    <fct>   
##  1     2    126541    18000       12       18 C                   
##  2     4    133291     9453       12       20 D                   
##  3     6    149711    25000       12       18 C                   
##  4     9    162641    20000       12       14 A                   
##  5    11    175451    20000       12       18 B                   
##  6    12    182261    25000       12       16 B                   
##  7    16    193956    14500       12       14 A                   
##  8    17    199461    25000       12       20 E                   
##  9    18    199618    28000       12       16 E                   
## 10    19    209191    20000       12       20 E                   
## # ... with 252,152 more rows, and 14 more variables:  <int>,
## #    <fct>,  <fct>,  <fct>,  <fct>,
## #    <fct>,  <fct>,  <fct>,  <int>,
## #    <int>,  <dbl>,
## #    <int>,  <int>, grade <chr>
…
## # A tibble: 40 x 4
##      money_mean money_median     n
##    <int>      <dbl>        <dbl> <int>
##  1    18      1882.        1500    533
##  2    19      1619.        1114.  2950
##  3    20      1821.        1500   5523
##  4    21      2357.        2000   8524
##  5    22      3250.        3000  14352
##  6    23      3727.        3100  17465
##  7    24      4061.        3500  17856
##  8    25      4270.        3658  17847
##  9    26      4464.        3822  19728
## 10    27      4535.        4000  18995
## # ... with 30 more rows

## # A tibble: 252,162 x 22
## # Groups:    [40]
##        X ListingId      
##  * <int>     <int>    <int>    <int>    <dbl> <fct>    <fct>    <fct>   
##  1     2    126541    18000       12       18 C                   
##  2     4    133291     9453       12       20 D                   
##  3     6    149711    25000       12       18 C                   
##  4     9    162641    20000       12       14 A                   
##  5    11    175451    20000       12       18 B                   
##  6    12    182261    25000       12       16 B                   
##  7    16    193956    14500       12       14 A                   
##  8    17    199461    25000       12       20 E                   
##  9    18    199618    28000       12       16 E                   
## 10    19    209191    20000       12       20 E                   
## # ... with 252,152 more rows, and 14 more variables:  <int>,
## #    <fct>,  <fct>,  <fct>,  <fct>,
## #    <fct>,  <fct>,  <fct>,  <int>,
## #    <int>,  <dbl>,
## #    <int>,  <int>, grade <chr>
…
